\babel@toc {english}{}\relax 
\contentsline {chapter}{\numberline {1}API Documentation}{1}{chapter.1}%
\contentsline {chapter}{\numberline {2}Indices and tables}{5}{chapter.2}%
\contentsline {chapter}{Python Module Index}{7}{section*.15}%
\contentsline {chapter}{Index}{9}{section*.16}%
