\relax 
\providecommand\babel@aux[2]{}
\@nameuse{bbl@beforestart}
\providecommand\hyper@newdestlabel[2]{}
\providecommand\HyperFirstAtBeginDocument{\AtBeginDocument}
\HyperFirstAtBeginDocument{\ifx\hyper@anchor\@undefined
\global\let\oldnewlabel\newlabel
\gdef\newlabel#1#2{\newlabelxx{#1}#2}
\gdef\newlabelxx#1#2#3#4#5#6{\oldnewlabel{#1}{{#2}{#3}}}
\AtEndDocument{\ifx\hyper@anchor\@undefined
\let\newlabel\oldnewlabel
\fi}
\fi}
\global\let\hyper@last\relax 
\gdef\HyperFirstAtBeginDocument#1{#1}
\providecommand\HyField@AuxAddToFields[1]{}
\providecommand\HyField@AuxAddToCoFields[2]{}
\babel@aux{english}{}
\newlabel{index::doc}{{}{1}{}{section*.2}{}}
\@writefile{toc}{\contentsline {chapter}{\numberline {1}API Documentation}{1}{chapter.1}\protected@file@percent }
\@writefile{lof}{\addvspace {10\p@ }}
\@writefile{lot}{\addvspace {10\p@ }}
\newlabel{api:module-schroedingerscalc}{{1}{1}{API Documentation}{chapter.1}{}}
\newlabel{api:api-documentation}{{1}{1}{API Documentation}{chapter.1}{}}
\newlabel{api::doc}{{1}{1}{API Documentation}{chapter.1}{}}
\newlabel{api:schroedingerscalc.main}{{1}{1}{API Documentation}{section*.3}{}}
\newlabel{api:schroedingerscalc.solve}{{1}{1}{API Documentation}{section*.4}{}}
\newlabel{api:module-SchroedingerModules.input}{{1}{1}{API Documentation}{section*.5}{}}
\newlabel{api:SchroedingerModules.input.readin_plot}{{1}{1}{API Documentation}{section*.6}{}}
\newlabel{api:SchroedingerModules.input.readin_schrod}{{1}{1}{API Documentation}{section*.7}{}}
\newlabel{api:module-SchroedingerModules.potentialdiscretizer}{{1}{1}{API Documentation}{section*.8}{}}
\newlabel{api:SchroedingerModules.potentialdiscretizer.discrete_pot}{{1}{1}{API Documentation}{section*.9}{}}
\newlabel{api:module-SchroedingerModules.solver}{{1}{2}{API Documentation}{section*.10}{}}
\newlabel{api:SchroedingerModules.solver.calc}{{1}{2}{API Documentation}{section*.11}{}}
\newlabel{api:SchroedingerModules.solver.solve_normed}{{1}{2}{API Documentation}{section*.12}{}}
\newlabel{api:module-SchroedingerModules.plotter}{{1}{3}{API Documentation}{section*.13}{}}
\newlabel{api:SchroedingerModules.plotter.visualise}{{1}{3}{API Documentation}{section*.14}{}}
\@writefile{toc}{\contentsline {chapter}{\numberline {2}Indices and tables}{5}{chapter.2}\protected@file@percent }
\@writefile{lof}{\addvspace {10\p@ }}
\@writefile{lot}{\addvspace {10\p@ }}
\newlabel{index:indices-and-tables}{{2}{5}{Indices and tables}{chapter.2}{}}
\@writefile{toc}{\contentsline {chapter}{Python Module Index}{7}{section*.15}\protected@file@percent }
\@writefile{toc}{\contentsline {chapter}{Index}{9}{section*.16}\protected@file@percent }
\gdef \@abspage@last{13}
